<svg id="Layer_1" data-name="Layer 1" xmlns="http://www.w3.org/2000/svg" viewBox="0 0 145.5 145.7">
  <title>Service icon</title>
  <g>
    <g style="opacity: 0.2">
      <circle cx="95.5" cy="50" r="50" style="fill: #2f2fa2"/>
    </g>
    <g>
      <g>
        <path d="M62.5,57.3V52.2H56.6v5.1A39.5,39.5,0,0,0,19.4,96.4v.4a2.9,2.9,0,0,0,3,2.5h2.4a17.9,17.9,0,0,1,15,8.3,2.8,2.8,0,0,0,2.4,1.5h.1a4.8,4.8,0,0,0,2.2-1.2h0a18,18,0,0,1,11.9-8.2v35.8a11.5,11.5,0,0,0,3.1,7.1,10.5,10.5,0,0,0,7.4,3.2,12.3,12.3,0,0,0,7.3-3.1,9.2,9.2,0,0,0,3.2-7.2V130H71.5v5.4a4.6,4.6,0,0,1-4.5,4.4,4.4,4.4,0,0,1-4.3-4.4V99.5a19.4,19.4,0,0,1,12,8.1,2.1,2.1,0,0,0,1.3,1.3,2.9,2.9,0,0,0,3.6-1.2,17.3,17.3,0,0,1,14.8-8.4h3a2.9,2.9,0,0,0,2.6-2.9h0A39.5,39.5,0,0,0,62.5,57.3Zm.3,10.4V62.9A33.9,33.9,0,0,1,94,93.5a23.1,23.1,0,0,0-16.8,7.7,19,19,0,0,0-2.5-2.4,23.2,23.2,0,0,0-32.2,2.4,22.9,22.9,0,0,0-16.8-7.7A34.1,34.1,0,0,1,56.9,62.9v4.8Z" style="fill: #2f2fa2"/>
        <path d="M124.4,64.9l6-5.8.4-.4a2.3,2.3,0,0,0-.3-2.9,2.4,2.4,0,0,0-3.3,0l-6.2,6-6.1-6a2.3,2.3,0,0,0-1.6-.6h0a2.2,2.2,0,0,0-1.6,3.8l6.2,5.9-6.2,6h0a2.2,2.2,0,0,0,0,3.1,2.4,2.4,0,0,0,3.4,0l6.1-6.1,6.1,5.9a2,2,0,0,0,1.6.7,2.3,2.3,0,0,0,1.6-.6h.1a2.3,2.3,0,0,0-.1-3.1Z" style="fill: #2f2fa2"/>
        <path d="M29.4,37.8a2.2,2.2,0,0,0-.6,1.5,2,2,0,0,0,.7,1.6,2.3,2.3,0,0,0,1.6.6,2.7,2.7,0,0,0,1.7-.6l6.1-6L45,40.8a2,2,0,0,0,1.6.7,2.3,2.3,0,0,0,1.6-.6h.1a2.2,2.2,0,0,0-.1-3.1l-6.1-6.1,6-6c.1-.1.2-.1.2-.2s.2-.1.2-.2a2.2,2.2,0,0,0-.4-2.9,1.8,1.8,0,0,0-1.5-.6,2.3,2.3,0,0,0-1.6.6l-6.1,6.1-6.1-5.9a2.4,2.4,0,0,0-3.3,0h-.1a2.2,2.2,0,0,0-.6,1.5,2.3,2.3,0,0,0,.6,1.6l6.2,6.1-6.1,5.9Z" style="fill: #2f2fa2"/>
      </g>
      <g>
        <path d="M96.3,32.5a12.9,12.9,0,0,0-9.2-3.8H87a13,13,0,0,0-13,13A13.2,13.2,0,0,0,87.1,54.8h0a13.1,13.1,0,0,0,9.2-22.3Zm-9.2,1.1A8.1,8.1,0,1,1,79,41.7a8.1,8.1,0,0,1,8.1-8.1Z" style="fill: #2f2fa2"/>
        <path d="M22.3,48.5a12.9,12.9,0,0,0-9.2-3.8H13a13,13,0,0,0-13,13A13.2,13.2,0,0,0,13.1,70.8h0a13.1,13.1,0,0,0,9.2-22.3Zm-9.2,1.1A8.1,8.1,0,1,1,5,57.7a8.1,8.1,0,0,1,8.1-8.1Z" style="fill: #2f2fa2"/>
      </g>
    </g>
  </g>
</svg>
