<svg id="Layer_1" data-name="Layer 1" xmlns="http://www.w3.org/2000/svg" viewBox="0 0 100 100">
  <title>SM icon</title>
  <g>
    <path class="up" d="M91.2,54.9a17.2,17.2,0,0,0-3.1-8.6L69.6,64.8a7.8,7.8,0,0,1,.6,3.1,7.9,7.9,0,1,1-15.8,0,9.3,9.3,0,0,1,.4-2.3l-13.4-12a8.5,8.5,0,0,1-3.5.8,8.8,8.8,0,0,1-4-1L5.2,76.1a18.1,18.1,0,0,0,11.6,5.2H87.2a13.7,13.7,0,0,0,4-26.4Z" style="fill: #2F2FA2"/>
    <path class="down" d="M30,46.5a7.9,7.9,0,1,1,15.8,0,10.1,10.1,0,0,1-.4,2.5L58.6,60.9a7.8,7.8,0,0,1,3.7-.9,9.3,9.3,0,0,1,2.9.5L83.7,42a17.3,17.3,0,0,0-9.5-2.8,16.7,16.7,0,0,0-8.9,2.4,23.6,23.6,0,0,0-46.4,4.1H17.8A17.9,17.9,0,0,0,0,63.5,17.2,17.2,0,0,0,1.7,71L30.2,48.5A12.3,12.3,0,0,1,30,46.5Z" style="fill: #2F2FA2"/>
  </g>
</svg>
