<svg id="Layer_1" data-name="Layer 1" xmlns="http://www.w3.org/2000/svg" viewBox="0 0 100 100">
  <title>SM icon</title>
  <path d="M100,19.5a41.1,41.1,0,0,1-11.8,3.2,20.5,20.5,0,0,0,9.1-11.2,42.2,42.2,0,0,1-13.1,4.9,20.2,20.2,0,0,0-15-6.4A20.4,20.4,0,0,0,48.7,30.2a23.2,23.2,0,0,0,.6,4.6A58.4,58.4,0,0,1,7,13.7,20.4,20.4,0,0,0,4.2,23.8a20,20,0,0,0,9.1,16.8A18.5,18.5,0,0,1,4,38.1v.3a19.8,19.8,0,0,0,1.4,7.3A20.7,20.7,0,0,0,20.5,58.2a19.5,19.5,0,0,1-5.4.7,17.2,17.2,0,0,1-3.9-.4A20.8,20.8,0,0,0,30.4,72.6,41.9,41.9,0,0,1,4.9,81.2L0,80.9A59.2,59.2,0,0,0,31.5,90c32,0,51.8-22.2,56.9-45.2a51.9,51.9,0,0,0,1.4-12.2V30A42.4,42.4,0,0,0,100,19.5Z" style="fill: #2F2FA2;fill-rule: evenodd"/>
</svg>
